Introduction
…
About

The Assessment, Total Maximum Daily Load (TMDL) Tracking and Implementation System (ATTAINS) is the U.S. Environmental Protection Agency (EPA) database used to track information provided by states about water quality assessments conducted under the Clean Water Act. The assessments are conducted every two years to evaluate if the nation’s water bodies meet water quality standards. States are required to take Actions (TMDLs or other efforts) on water bodies that do not meet standards. Public information in ATTAINS is made available through webservices and provided as JSON files. rATTAINS facilitates accessing this data with various functions that provide raw JSON or formatted “tidy” data for each of the ATTAINS webservice endpoints. More information about Clean Water Act assessment and reporting is available through the EPA. For alternative methods of accessing the same data, see “How’s My Waterway” webpage for interactive data exploration or the ArcGIS MapService for spatial data.

Functions

Summary Services

The EPA provides two summary service endpoint that provide summaries of assessed uses by the organization identifier or by hydrologic unit code (HUC). For example, to return a summary of assessed uses by the state of Tennessee the following function is used:

library(rATTAINS)
x <- state_summary(organization_id = "TDECWR",
                   reporting_cycle = "2016")
x
#> # A tibble: 22 x 13
#>    organization_identifier organization_name organization_type_~ reporting_cycle
#>    <chr>                   <chr>             <chr>               <chr>          
#>  1 TDECWR                  Tennessee         State               2016           
#>  2 TDECWR                  Tennessee         State               2016           
#>  3 TDECWR                  Tennessee         State               2016           
#>  4 TDECWR                  Tennessee         State               2016           
#>  5 TDECWR                  Tennessee         State               2016           
#>  6 TDECWR                  Tennessee         State               2016           
#>  7 TDECWR                  Tennessee         State               2016           
#>  8 TDECWR                  Tennessee         State               2016           
#>  9 TDECWR                  Tennessee         State               2016           
#> 10 TDECWR                  Tennessee         State               2016           
#> # ... with 12 more rows, and 9 more variables: combined_cycles <chr>,
#> #   water_type_code <chr>, units_code <chr>, use_name <chr>,
#> #   fully_supporting <chr>, fully_supporting_count <chr>, not_assessed <chr>,
#> #   not_assessed_count <chr>, parameters <list>
…
huc12_summary() returns a list of tibbles with different summaries of information. Using the above example, x$huc_summary provides a summary of HUC area, and the area and percentage of catchment assessed as good, unknown, or impaired. x$assessment_unit_id provides a tibble with the unique identifiers for the assessment units (or distinct sections of waterbodies) within the queried HUC12. x$ir_summary provides a simple summary of the area of the catchment classified under different Integrated Report Categories. x$use_summary provides a summary of use attainment with the HUC12. x$param_summary provides the same information for parameter groups. x$res_plan_summary and x$vision_plan_summary provides a summary of the amount of the watershed covered by particular types of restoration plans or vision plan, such as TMDLs.

Domains

Each function has a number of allowable arguments and associated values. In order to explore what values you might be interested in querying, the Domain Value service provides information about allowable options. This is mapped to the domain_values() function. When used without any arguments you get a full list of possible “domains.” These are typically searchable parameters used in all the functions in rATTAINS. Note that the domain names returned by these service are not a one to one match with the argument names used in rATTAINS. It is typically fairly easy to figure out which ones match up to which arguments.

For example if I want to find out the possible organization identifiers to query by:

x <- domain_values(domain_name = "OrgStateCode")
x
#> # A tibble: 146 x 4
#>    domain       name  code  context        
#>    <chr>        <chr> <chr> <chr>          
#>  1 OrgStateCode AK    AK    EPA            
#>  2 OrgStateCode FL    FL    21FL303D       
#>  3 OrgStateCode PA    PA    EPA            
#>  4 OrgStateCode CC    CC    TEST_ORG_C     
#>  5 OrgStateCode AZ    AZ    TEST_TRIBE_B   
#>  6 OrgStateCode MS    MS    21MSWQ         
#>  7 OrgStateCode CT    CT    CT_DEP01       
#>  8 OrgStateCode ND    ND    21NDHDWQ       
#>  9 OrgStateCode MN    MN    REDLAKE        
#> 10 OrgStateCode NM    NM    PUEBLO_POJOAQUE
#> # ... with 136 more rows
…
